{
  "slides": [
    {
      "detail": "Salmos 37:5",
      "content": "Entrega teu caminho ao Senhor, confia Nele, e Ele o fará.",
      "image": "/image/upload/costa.jpg"
    },
    {
      "detail": "Êxodo 20:12",
      "content": "Honra teu pai e tua mãe, a fim de que tenhas vida longa na terra que o Senhor, o teu Deus, te dá.",
      "image": "/image/upload/familia.jpg"
    }
  ]
}