{
  "image": "/image/upload/oracao.jpg",
  "title": "Oração",
  "intro": "Qual o significado da oração? Por que orar se Deus sabe o que está em nossos corações? Vamos entender juntos.",
  "date": "2019-02-01",
  "content": "Em breve!",
  "author": "João",
  "link": "#"
}
