{
  "image": "/image/upload/amigos.jpg",
  "date": "2019-01-20",
  "author": "Malaquias",
  "title": "Gincana do Amigo",
  "intro": "Neste evento realizamos várias brincadeiras e competições entre os membros e amigos da nossa igreja. 'Maior é a recompensa do trabalho de duas pessoas' - Eclesiastes 4:9.",
  "content": "Em breve!",
  "link": "#"
}
